5559896a7221059d53b956a4,f,33,manhattan
5559896b7221059d53b95d17,f,30,hartford
5559896b7221059d53b95a8b,f,27,new york
5559896b7221059d53b958d0,f,35,new york
5559896b7221059d53b959c1,m,32,houston
5559896b7221059d53b959ac,f,36,hoboken
5559896b7221059d53b957fa,m,42,new york
5559896b7221059d53b958f3,f,32,new york
5559896a7221059d53b94e71,m,30,manhattan
5559896b7221059d53b95bb6,f,27,new york
5559896b7221059d53b95888,f,43,new york
5559896b7221059d53b95b1c,f,32,new york
5559896b7221059d53b9592d,f,31,new york
555989697221059d53b94daf,m,38,long island
5559896a7221059d53b95514,m,34,manhattan
5559896b7221059d53b95d61,f,28,brooklyn
5559896a7221059d53b9569b,m,40,new york
5559896b7221059d53b959e3,f,28,nara
555989697221059d53b9457b,f,26,manhattan
5559896b7221059d53b95d3e,f,28,new york
5559896b7221059d53b95d68,f,25,manhattan
555989697221059d53b946f3,m,35,brooklyn
5559896a7221059d53b9559c,f,30,new york
5559896b7221059d53b95ca3,f,27,bellmore
555989697221059d53b94af3,f,24,new york
5559896b7221059d53b95c17,f,30,manhattan
5559896b7221059d53b95c28,f,26,new york
5559896a7221059d53b94ed3,f,36,new york
5559896a7221059d53b95736,m,34,new york
5559896b7221059d53b9590e,f,25,los angeles
555989697221059d53b9464d,f,44,manhattan
555989697221059d53b94de4,f,28,new york
5559896a7221059d53b95057,f,26,new york
555989697221059d53b949d7,f,26,manhattan
5559896b7221059d53b959ad,m,28,new york
5559896a7221059d53b95396,m,37,mount kisco
555989697221059d53b94ab8,f,25,manhattan
5559896a7221059d53b94fe6,m,30,rego park
5559896a7221059d53b9519b,f,28,jamaica
5559896a7221059d53b951ea,f,27,financial district
5559896a7221059d53b952bf,f,36,new york
5559896a7221059d53b952c5,m,30,hoboken
5559896a7221059d53b9531a,f,35,brooklyn
5559896a7221059d53b95381,m,30,manhattan
5559896a7221059d53b954f9,m,27,new york
5559896a7221059d53b9554c,m,25,fresh meadows
5559896b7221059d53b957d7,f,24,new york
5559896b7221059d53b95a34,f,34,sunnyside
5559896b7221059d53b95a92,f,29,forest hills
5559896b7221059d53b95b55,f,32,manhattan
5559896b7221059d53b95b9e,f,35,brooklyn
5559896b7221059d53b95bc3,f,24,brooklyn
5559896b7221059d53b95c91,f,28,culver city
5559896b7221059d53b95cd4,m,33,new york
5559896b7221059d53b95d8f,f,29,albany
5559896b7221059d53b95d7c,f,30,new york
555989697221059d53b9451c,m,35,new york
555989697221059d53b94ad0,m,32,bronx
555989697221059d53b94d87,f,25,great neck
5559896a7221059d53b94ed5,m,34,brooklyn
5559896a7221059d53b94f2e,f,29,forest hills
5559896a7221059d53b94f40,f,26,new york
5559896a7221059d53b94fa1,m,40,warren
5559896a7221059d53b9506c,f,35,new york
5559896a7221059d53b9519f,m,32,new york
5559896a7221059d53b95214,f,25,manhattan
5559896a7221059d53b952a9,f,34,new york
5559896a7221059d53b95376,f,30,san jose
5559896a7221059d53b953b8,m,29,manhattan
5559896a7221059d53b95415,m,35,manhattan
5559896a7221059d53b9543e,f,30,new york
5559896a7221059d53b9545e,m,29,brooklyn
5559896a7221059d53b954c3,f,29,manhattan
5559896a7221059d53b954ef,f,30,singapore
5559896a7221059d53b95505,f,35,new york
5559896a7221059d53b955c3,m,27,san francisco
5559896a7221059d53b9565a,m,25,long island city
5559896b7221059d53b9582f,f,30,hoboken
5559896b7221059d53b95855,f,28,arlington
5559896b7221059d53b95856,m,32,brooklyn heights
5559896b7221059d53b95953,f,32,oakland greens
5559896b7221059d53b959bb,f,29,new york
5559896b7221059d53b95a98,m,30,manhattan
5559896b7221059d53b95b20,f,37,san francisco
5559896b7221059d53b95bbb,f,32,manhattan
5559896b7221059d53b95c78,m,30,astoria
5559896b7221059d53b95d1a,f,30,brooklyn
5559896b7221059d53b95d63,f,29,astoria
5559896b7221059d53b95d96,f,29,boston